Enzymmatic indicators of liver damage based on sex, race/ethnicity, and alcohol use history – Landon Power
…
ridreth1
5-Cat
Race/Hispanic origin (1 = Mexican American, 2 = Other Hispanic, 3 = Non-Hispanic White, 4 = Non-Hispanic Black, 5 = Other Race, Including Multi-Racial)

alq151
Binary
Period of life where subject ever had more than 4/5 drinks every day? (1 = Yes, 2 = No, 7 = Refused, 9 = Don’t know)

3.2 Analytic Tibble

The complete tibble and a summary of the variables that are missing values is shown below.

liver_damage

# A tibble: 7,853 × 8
     seqn ridstatr ridageyr lbxsatsi lbxsassi riagendr ridreth1           alq151
    <dbl>    <dbl>    <dbl>    <dbl>    <dbl> <fct>    <fct>              <fct> 
 1 109266        2       29       15       14 female   Other/Multi-Racial no    
 2 109271        2       49        8       14 male     Non-Hispanic White yes   
 3 109273        2       36       35       27 male     Non-Hispanic White no    
 4 109274        2       68       19       20 male     Other/Multi-Racial no    
 5 109282        2       76       17       19 male     Non-Hispanic White no    
 6 109284        2       44       16       15 female   Mexican American   <NA>  
 7 109286        2       33       10       13 female   Other/Multi-Racial <NA>  
 8 109290        2       68       19       18 female   Non-Hispanic Black no    
 9 109291        2       42       11       25 female   Other/Multi-Racial <NA>  
10 109292        2       58       21       18 male     Other Hispanic     no    
# ℹ 7,843 more rows
…
